release/test02/dao.vcd
$date
	Wed Jun 15 12:54:29 2022
$end
$version
	Icarus Verilog
$end
$timescale
	10ps
$end
$scope module tb $end
$var wire 4 ! out1 [3:0] $end
$var reg 1 " clk $end
$var reg 4 # in1 [3:0] $end
$var reg 4 $ in2 [3:0] $end
$var reg 4 % in3 [3:0] $end
$var integer 32 & i [31:0] $end
$var integer 32 ' j [31:0] $end
$var integer 32 ( k [31:0] $end
$scope module top0 $end
$var wire 1 ) csa_tree_ADD_TC_OP_groupi_n_0 $end
$var wire 1 * csa_tree_ADD_TC_OP_groupi_n_1 $end
$var wire 1 + csa_tree_ADD_TC_OP_groupi_n_10 $end
$var wire 1 , csa_tree_ADD_TC_OP_groupi_n_11 $end
$var wire 1 - csa_tree_ADD_TC_OP_groupi_n_12 $end
$var wire 1 . csa_tree_ADD_TC_OP_groupi_n_13 $end
$var wire 1 / csa_tree_ADD_TC_OP_groupi_n_14 $end
$var wire 1 0 csa_tree_ADD_TC_OP_groupi_n_15 $end
$var wire 1 1 csa_tree_ADD_TC_OP_groupi_n_16 $end
$var wire 1 2 csa_tree_ADD_TC_OP_groupi_n_17 $end
$var wire 1 3 csa_tree_ADD_TC_OP_groupi_n_18 $end
$var wire 1 4 csa_tree_ADD_TC_OP_groupi_n_19 $end
$var wire 1 5 csa_tree_ADD_TC_OP_groupi_n_2 $end
$var wire 1 6 csa_tree_ADD_TC_OP_groupi_n_20 $end
$var wire 1 7 csa_tree_ADD_TC_OP_groupi_n_21 $end
$var wire 1 8 csa_tree_ADD_TC_OP_groupi_n_22 $end
$var wire 1 9 csa_tree_ADD_TC_OP_groupi_n_23 $end
$var wire 1 : csa_tree_ADD_TC_OP_groupi_n_24 $end
$var wire 1 ; csa_tree_ADD_TC_OP_groupi_n_25 $end
$var wire 1 < csa_tree_ADD_TC_OP_groupi_n_26 $end
$var wire 1 = csa_tree_ADD_TC_OP_groupi_n_27 $end
$var wire 1 > csa_tree_ADD_TC_OP_groupi_n_28 $end
$var wire 1 ? csa_tree_ADD_TC_OP_groupi_n_29 $end
$var wire 1 @ csa_tree_ADD_TC_OP_groupi_n_3 $end
$var wire 1 A csa_tree_ADD_TC_OP_groupi_n_30 $end
$var wire 1 B csa_tree_ADD_TC_OP_groupi_n_31 $end
$var wire 1 C csa_tree_ADD_TC_OP_groupi_n_32 $end
$var wire 1 D csa_tree_ADD_TC_OP_groupi_n_33 $end
$var wire 1 E csa_tree_ADD_TC_OP_groupi_n_34 $end
$var wire 1 F csa_tree_ADD_TC_OP_groupi_n_35 $end
$var wire 1 G csa_tree_ADD_TC_OP_groupi_n_36 $end
$var wire 1 H csa_tree_ADD_TC_OP_groupi_n_37 $end
$var wire 1 I csa_tree_ADD_TC_OP_groupi_n_39 $end
$var wire 1 J csa_tree_ADD_TC_OP_groupi_n_4 $end
$var wire 1 K csa_tree_ADD_TC_OP_groupi_n_40 $end
$var wire 1 L csa_tree_ADD_TC_OP_groupi_n_41 $end
$var wire 1 M csa_tree_ADD_TC_OP_groupi_n_42 $end
$var wire 1 N csa_tree_ADD_TC_OP_groupi_n_43 $end
$var wire 1 O csa_tree_ADD_TC_OP_groupi_n_44 $end
$var wire 1 P csa_tree_ADD_TC_OP_groupi_n_45 $end
$var wire 1 Q csa_tree_ADD_TC_OP_groupi_n_46 $end
$var wire 1 R csa_tree_ADD_TC_OP_groupi_n_47 $end
$var wire 1 S csa_tree_ADD_TC_OP_groupi_n_48 $end
$var wire 1 T csa_tree_ADD_TC_OP_groupi_n_49 $end
$var wire 1 U csa_tree_ADD_TC_OP_groupi_n_5 $end
$var wire 1 V csa_tree_ADD_TC_OP_groupi_n_50 $end
$var wire 1 W csa_tree_ADD_TC_OP_groupi_n_51 $end
$var wire 1 X csa_tree_ADD_TC_OP_groupi_n_53 $end
$var wire 1 Y csa_tree_ADD_TC_OP_groupi_n_54 $end
$var wire 1 Z csa_tree_ADD_TC_OP_groupi_n_55 $end
$var wire 1 [ csa_tree_ADD_TC_OP_groupi_n_6 $end
$var wire 1 \ csa_tree_ADD_TC_OP_groupi_n_7 $end
$var wire 1 ] csa_tree_ADD_TC_OP_groupi_n_8 $end
$var wire 1 ^ csa_tree_ADD_TC_OP_groupi_n_9 $end
$var wire 4 _ in1 [3:0] $end
$var wire 4 ` in2 [3:0] $end
$var wire 4 a in3 [3:0] $end
$var wire 4 b out1 [3:0] $end
$upscope $end
$upscope $end
$enddefinitions $end
#0
$dumpvars
b0 b
b0 a
b0 `
b0 _
1^
1]
1\
1[
0Z
1Y
0X
0W
0V
1U
1T
1S
1R
1Q
0P
0O
1N
0M
1L
0K
1J
1I
0H
0G
1F
1E
1D
0C
1B
0A
1@
1?
0>
0=
0<
1;
1:
19
18
17
06
15
14
03
12
11
10
0/
1.
1-
1,
1+
0*
0)
b0 (
b0 '
b0 &
b0 %
b0 $
b0 #
0"
b0 !
$end
#500
b1 !
b1 b
0+
b1 %
b1 a
b1 (
1"
#1000
0"
#1500
0F
0L
1P
b10 !
b10 b
1G
1+
b10 %
b10 a
b10 (
1"
#2000
0"
#2500
b11 !
b11 b
0+
b11 %
b11 a
b11 (
1"
#3000
0"
#3500
1)
0T
1O
1F
1L
0P
b100 !
b100 b
1H
0G
1+
0[
b100 %
b100 a
b100 (
1"
#4000
0"
#4500
b101 !
b101 b
0+
b101 %
b101 a
b101 (
1"
#5000
0"
#5500
0F
0L
1P
b110 !
b110 b
1G
1+
b110 %
b110 a
b110 (
1"
#6000
0"
#6500
b111 !
b111 b
0+
b111 %
b111 a
b111 (
1"
#7000
0"
#7500
1Z
0)
1T
1W
0O
1F
1L
0P
1M
b1000 !
b1000 b
0H
0G
1C
1+
1[
b1000 %
b1000 a
b1000 (
1"
#8000
0"
#8500
b1001 !
b1001 b
0+
b1001 %
b1001 a
b1001 (
1"
#9000
0"
#9500
0F
0L
1P
b1010 !
b1010 b
1G
1+
b1010 %
b1010 a
b1010 (
1"
#10000
0"
#10500
b1011 !
b1011 b
0+
b1011 %
b1011 a
b1011 (
1"
#11000
0"
#11500
1)
0T
1O
1F
1L
0P
b1100 !
b1100 b
1H
0G
1+
0[
b1100 %
b1100 a
b1100 (
1"
#12000
0"
#12500
b1101 !
b1101 b
0+
b1101 %
b1101 a
b1101 (
1"
#13000
0"
#13500
0F
0L
1P
b1110 !
b1110 b
1G
1+
b1110 %
b1110 a
b1110 (
1"
#14000
0"
#14500
b1111 !
b1111 b
0+
b1111 %
b1111 a
b1111 (
1"
#15000
0"
#15500
0Z
0)
1T
0W
05
0O
1F
1L
0P
0M
1*
b0 !
b0 b
0H
0G
0C
1+
1[
0@
b0 %
b0 a
b1 $
b1 `
b1 '
b0 (
1"
#16000
0"
#16500
b1 !
b1 b
0+
b1 %
b1 a
b1 (
1"
#17000
0"
#17500
0F
0L
1P
b10 !
b10 b
1G
1+
b10 %
b10 a
b10 (
1"
#18000
0"
#18500
b11 !
b11 b
0+
b11 %
b11 a
b11 (
1"
#19000
0"
#19500
1)
0T
1O
1F
1L
0P
b100 !
b100 b
1H
0G
1+
0[
b100 %
b100 a
b100 (
1"
#20000
0"
#20500
b101 !
b101 b
0+
b101 %
b101 a
b101 (
1"
#21000
0"
#21500
0F
0L
1P
b110 !
b110 b
1G
1+
b110 %
b110 a
b110 (
1"
#22000
0"
#22500
b111 !
b111 b
0+
b111 %
b111 a
b111 (
1"
#23000
0"
#23500
1Z
0)
1T
1W
0O
1F
1L
0P
1M
b1000 !
b1000 b
0H
0G
1C
1+
1[
b1000 %
b1000 a
b1000 (
1"
#24000
0"
#24500
b1001 !
b1001 b
0+
b1001 %
b1001 a
b1001 (
1"
#25000
0"
#25500
0F
0L
1P
b1010 !
b1010 b
1G
1+
b1010 %
b1010 a
b1010 (
1"
#26000
0"
#26500
b1011 !
b1011 b
0+
b1011 %
b1011 a
b1011 (
1"
#27000
0"
#27500
1)
0T
1O
1F
1L
0P
b1100 !
b1100 b
1H
0G
1+
0[
b1100 %
b1100 a
b1100 (
1"
#28000
0"
#28500
b1101 !
b1101 b
0+
b1101 %
b1101 a
b1101 (
1"
#29000
0"
#29500
0F
0L
1P
b1110 !
b1110 b
1G
1+
b1110 %
b1110 a
b1110 (
1"
#30000
0"
#30500
b1111 !
b1111 b
0+
b1111 %
b1111 a
b1111 (
1"
#31000
0"
#31500
0Z
0)
1T
0W
15
0O
1F
1L
0P
0M
0*
b0 !
b0 b
0H
0G
0C
1+
1[
0U
1@
b0 %
b0 a
b10 $
b10 `
b10 '
b0 (
1"
#32000
0"
#32500
b1 !
b1 b
0+
b1 %
b1 a
b1 (
1"
#33000
0"
#33500
0F
0L
1P
b10 !
b10 b
1G
1+
b10 %
b10 a
b10 (
1"
#34000
0"
#34500
b11 !
b11 b
0+
b11 %
b11 a
b11 (
1"
#35000
0"
#35500
1)
0T
1O
1F
1L
0P
b100 !
b100 b
1H
0G
1+
0[
b100 %
b100 a
b100 (
1"
#36000
0"
#36500
b101 !
b101 b
0+
b101 %
b101 a
b101 (
1"
#37000
0"
#37500
0F
0L
1P
b110 !
b110 b
1G
1+
b110 %
b110 a
b110 (
1"
#38000
0"
#38500
b111 !
b111 b
0+
b111 %
b111 a
b111 (
1"
#39000
0"
#39500
1Z
0)
1T
1W
0O
1F
1L
0P
1M
b1000 !
b1000 b
0H
0G
1C
1+
1[
b1000 %
b1000 a
b1000 (
1"
#40000
0"
#40500
b1001 !
b1001 b
0+
b1001 %
b1001 a
b1001 (
1"
#41000
0"
#41500
0F
0L
1P
b1010 !
b1010 b
1G
1+
b1010 %
b1010 a
b1010 (
1"
#42000
0"
#42500
b1011 !
b1011 b
0+
b1011 %
b1011 a
b1011 (
1"
#43000
0"
#43500
1)
0T
1O
1F
1L
0P
b1100 !
b1100 b
1H
0G
1+
0[
b1100 %
b1100 a
b1100 (
1"
#44000
0"
#44500
b1101 !
b1101 b
0+
b1101 %
b1101 a
b1101 (
1"
#45000
0"
#45500
0F
0L
1P
b1110 !
b1110 b
1G
1+
b1110 %
b1110 a
b1110 (
1"
#46000
0"
#46500
b1111 !
b1111 b
0+
b1111 %
b1111 a
b1111 (
1"
#47000
0"
#47500
0Z
0)
1T
0W
05
0O
1F
1L
0P
0M
1*
b0 !
b0 b
0H
0G
0C
1+
1[
0@
b0 %
b0 a
b11 $
b11 `
b11 '
b0 (
1"
#48000
0"
#48500
b1 !
b1 b
0+
b1 %
b1 a
b1 (
1"
#49000
0"
#49500
0F
0L
1P
b10 !
b10 b
1G
1+
b10 %
b10 a
b10 (
1"
#50000
0"
#50500
b11 !
b11 b
0+
b11 %
b11 a
b11 (
1"
#51000
0"
#51500
1)
0T
1O
1F
1L
0P
b100 !
b100 b
1H
0G
1+
0[
b100 %
b100 a
b100 (
1"
#52000
0"
#52500
b101 !
b101 b
0+
b101 %
b101 a
b101 (
1"
#53000
0"
#53500
0F
0L
1P
b110 !
b110 b
1G
1+
b110 %
b110 a
b110 (
1"
#54000
0"
#54500
b111 !
b111 b
0+
b111 %
b111 a
b111 (
1"
#55000
0"
#55500
1Z
0)
1T
1W
0O
1F
1L
0P
1M
b1000 !
b1000 b
0H
0G
1C
1+
1[
b1000 %
b1000 a
b1000 (
1"
#56000
0"
#56500
b1001 !
b1001 b
0+
b1001 %
b1001 a
b1001 (
1"
#57000
0"
#57500
0F
0L
1P
b1010 !
b1010 b
1G
1+
b1010 %
b1010 a
b1010 (
1"
#58000
0"
#58500
b1011 !
b1011 b
0+
b1011 %
b1011 a
b1011 (
1"
#59000
0"
#59500
1)
0T
1O
1F
1L
0P
b1100 !
b1100 b
1H
0G
1+
0[
b1100 %
b1100 a
b1100 (
1"
#60000
0"
#60500
b1101 !
b1101 b
0+
b1101 %
b1101 a
b1101 (
1"
#61000
0"
#61500
0F
0L
1P
b1110 !
b1110 b
1G
1+
b1110 %
b1110 a
b1110 (
1"
#62000
0"
#62500
b1111 !
b1111 b
0+
b1111 %
b1111 a
b1111 (
1"
#63000
0"
#63500
0Z
0)
1T
0W
15
0O
1F
1L
0P
0M
0*
b0 !
b0 b
0H
0G
0C
1+
1[
0\
1U
1@
b0 %
b0 a
b100 $
b100 `
b100 '
b0 (
1"
#64000
0"
#64500
b1 !
b1 b
0+
b1 %
b1 a
b1 (
1"
#65000
0"
#65500
0F
0L
1P
b10 !
b10 b
1G
1+
b10 %
b10 a
b10 (
1"
#66000
0"
#66500
b11 !
b11 b
0+
b11 %
b11 a
b11 (
1"
#67000
0"
#67500
1)
0T
1O
1F
1L
0P
b100 !
b100 b
1H
0G
1+
0[
b100 %
b100 a
b100 (
1"
#68000
0"
#68500
b101 !
b101 b
0+
b101 %
b101 a
b101 (
1"
#69000
0"
#69500
0F
0L
1P
b110 !
b110 b
1G
1+
b110 %
b110 a
b110 (
1"
#70000
0"
#70500
b111 !
b111 b
0+
b111 %
b111 a
b111 (
1"
#71000
0"
#71500
1Z
0)
1T
1W
0O
1F
1L
0P
1M
b1000 !
b1000 b
0H
0G
1C
1+
1[
b1000 %
b1000 a
b1000 (
1"
#72000
0"
#72500
b1001 !
b1001 b
0+
b1001 %
b1001 a
b1001 (
1"
#73000
0"
#73500
0F
0L
1P
b1010 !
b1010 b
1G
1+
b1010 %
b1010 a
b1010 (
1"
#74000
0"
#74500
b1011 !
b1011 b
0+
b1011 %
b1011 a
b1011 (
1"
#75000
0"
#75500
1)
0T
1O
1F
1L
0P
b1100 !
b1100 b
1H
0G
1+
0[
b1100 %
b1100 a
b1100 (
1"
#76000
0"
#76500
b1101 !
b1101 b
0+
b1101 %
b1101 a
b1101 (
1"
#77000
0"
#77500
0F
0L
1P
b1110 !
b1110 b
1G
1+
b1110 %
b1110 a
b1110 (
1"
#78000
0"
#78500
b1111 !
b1111 b
0+
b1111 %
b1111 a
b1111 (
1"
#79000
0"
#79500
0Z
0)
1T
0W
05
0O
1F
1L
0P
0M
1*
b0 !
b0 b
0H
0G
0C
1+
1[
0@
b0 %
b0 a
b101 $
b101 `
b101 '
b0 (
1"
#80000
0"
#80500
b1 !
b1 b
0+
b1 %
b1 a
b1 (
1"
#81000
0"
#81500
0F
0L
1P
b10 !
b10 b
1G
1+
b10 %
b10 a
b10 (
1"
#82000
0"
#82500
b11 !
b11 b
0+
b11 %
b11 a
b11 (
1"
#83000
0"
#83500
1)
0T
1O
1F
1L
0P
b100 !
b100 b
1H
0G
1+
0[
b100 %
b100 a
b100 (
1"
#84000
0"
#84500
b101 !
b101 b
0+
b101 %
b101 a
b101 (
1"
#85000
0"
#85500
0F
0L
1P
b110 !
b110 b
1G
1+
b110 %
b110 a
b110 (
1"
#86000
0"
#86500
b111 !
b111 b
0+
b111 %
b111 a
b111 (
1"
#87000
0"
#87500
1Z
0)
1T
1W
0O
1F
1L
0P
1M
b1000 !
b1000 b
0H
0G
1C
1+
1[
b1000 %
b1000 a
b1000 (
1"
#88000
0"
#88500
b1001 !
b1001 b
0+
b1001 %
b1001 a
b1001 (
1"
#89000
0"
#89500
0F
0L
1P
b1010 !
b1010 b
1G
1+
b1010 %
b1010 a
b1010 (
1"
#90000
0"
#90500
b1011 !
b1011 b
0+
b1011 %
b1011 a
b1011 (
1"
#91000
0"
#91500
1)
0T
1O
1F
1L
0P
b1100 !
b1100 b
1H
0G
1+
0[
b1100 %
b1100 a
b1100 (
1"
#92000
0"
#92500
b1101 !
b1101 b
0+
b1101 %
b1101 a
b1101 (
1"
#93000
0"
#93500
0F
0L
1P
b1110 !
b1110 b
1G
1+
b1110 %
b1110 a
b1110 (
1"
#94000
0"
#94500
b1111 !
b1111 b
0+
b1111 %
b1111 a
b1111 (
1"
#95000
0"
#95500
0Z
0)
1T
0W
15
0O
1F
1L
0P
0M
0*
b0 !
b0 b
0H
0G
0C
1+
1[
0U
1@
b0 %
b0 a
b110 $
b110 `
b110 '
b0 (
1"
#96000
0"
#96500
b1 !
b1 b
0+
b1 %
b1 a
b1 (
1"
#97000
0"
#97500
0F
0L
1P
b10 !
b10 b
1G
1+
b10 %
b10 a
b10 (
1"
#98000
0"
#98500
b11 !
b11 b
0+
b11 %
b11 a
b11 (
1"
#99000
0"
#99500
1)
0T
1O
1F
1L
0P
b100 !
b100 b
1H
0G
1+
0[
b100 %
b100 a
b100 (
1"
#100000
0"
#100500
b101 !
b101 b
0+
b101 %
b101 a
b101 (
1"
#101000
0"
#101500
0F
0L
1P
b110 !
b110 b
1G
1+
b110 %
b110 a
b110 (
1"
#102000
0"
#102500
b111 !
b111 b
0+
b111 %
b111 a
b111 (
1"
#103000
0"
#103500
1Z
0)
1T
1W
0O
1F
1L
0P
1M
b1000 !
b1000 b
0H
0G
1C
1+
1[
b1000 %
b1000 a
b1000 (
1"
#104000
0"
#104500
b1001 !
b1001 b
0+
b1001 %
b1001 a
b1001 (
1"
#105000
0"
#105500
0F
0L
1P
b1010 !
b1010 b
1G
1+
b1010 %
b1010 a
b1010 (
1"
#106000
0"
#106500
b1011 !
b1011 b
0+
b1011 %
b1011 a
b1011 (
1"
#107000
0"
#107500
1)
0T
1O
1F
1L
0P
b1100 !
b1100 b
1H
0G
1+
0[
b1100 %
b1100 a
b1100 (
1"
#108000
0"
#108500
b1101 !
b1101 b
0+
b1101 %
b1101 a
b1101 (
1"
#109000
0"
#109500
0F
0L
1P
b1110 !
b1110 b
1G
1+
b1110 %
b1110 a
b1110 (
1"
#110000
0"
#110500
b1111 !
b1111 b
0+
b1111 %
b1111 a
b1111 (
1"
#111000
0"
#111500
0Z
0)
1T
0W
05
0O
1F
1L
0P
0M
1*
b0 !
b0 b
0H
0G
0C
1+
1[
0@
b0 %
b0 a
b111 $
b111 `
b111 '
b0 (
1"
#112000
0"
#112500
b1 !
b1 b
0+
b1 %
b1 a
b1 (
1"
#113000
0"
#113500
0F
0L
1P
b10 !
b10 b
1G
1+
b10 %
b10 a
b10 (
1"
#114000
0"
#114500
b11 !
b11 b
0+
b11 %
b11 a
b11 (
1"
#115000
0"
#115500
1)
0T
1O
1F
1L
0P
b100 !
b100 b
1H
0G
1+
0[
b100 %
b100 a
b100 (
1"
#116000
0"
#116500
b101 !
b101 b
0+
b101 %
b101 a
b101 (
1"
#117000
0"
#117500
0F
0L
1P
b110 !
b110 b
1G
1+
b110 %
b110 a
b110 (
1"
#118000
0"
#118500
b111 !
b111 b
0+
b111 %
b111 a
b111 (
1"
#119000
0"
#119500
1Z
0)
1T
1W
0O
1F
1L
0P
1M
b1000 !
b1000 b
0H
0G
1C
1+
1[
b1000 %
b1000 a
b1000 (
1"
#120000
0"
#120500
b1001 !
b1001 b
0+
b1001 %
b1001 a
b1001 (
1"
#121000
0"
#121500
0F
0L
1P
b1010 !
b1010 b
1G
1+
b1010 %
b1010 a
b1010 (
1"
#122000
0"
#122500
b1011 !
b1011 b
0+
b1011 %
b1011 a
b1011 (
1"
#123000
0"
#123500
1)
0T
1O
1F
1L
0P
b1100 !
b1100 b
1H
0G
1+
0[
b1100 %
b1100 a
b1100 (
1"
#124000
0"
#124500
b1101 !
b1101 b
0+
b1101 %
b1101 a
b1101 (
1"
#125000
0"
#125500
0F
0L
1P
b1110 !
b1110 b
1G
1+
b1110 %
b1110 a
b1110 (
1"
#126000
0"
#126500
b1111 !
b1111 b
0+
b1111 %
b1111 a
b1111 (
1"
#127000
0"
#127500
0Z
0)
1T
0W
15
0O
1F
1L
0P
0M
0*
b0 !
b0 b
0H
0G
0C
1+
1[
0-
1\
1U
1@
b0 %
b0 a
b1000 $
b1000 `
b1000 '
b0 (
1"
#128000
0"
#128500
b1 !
b1 b
0+
b1 %
b1 a
b1 (
1"
#129000
0"
#129500
0F
0L
1P
b10 !
b10 b
1G
1+
b10 %
b10 a
b10 (
1"
#130000
0"
#130500
b11 !
b11 b
0+
b11 %
b11 a
b11 (
1"
#131000
0"
#131500
1)
0T
1O
1F
1L
0P
b100 !
b100 b
1H
0G
1+
0[
b100 %
b100 a
b100 (
1"
#132000
0"
#132500
b101 !
b101 b
0+
b101 %
b101 a
b101 (
1"
#133000
0"
#133500
0F
0L
1P
b110 !
b110 b
1G
1+
b110 %
b110 a
b110 (
1"
#134000
0"
#134500
b111 !
b111 b
0+
b111 %
b111 a
b111 (
1"
#135000
0"
#135500
1Z
0)
1T
1W
0O
1F
1L
0P
1M
b1000 !
b1000 b
0H
0G
1C
1+
1[
b1000 %
b1000 a
b1000 (
1"
#136000
0"
#136500
b1001 !
b1001 b
0+
b1001 %
b1001 a
b1001 (
1"
#137000
0"
#137500
0F
0L
1P
b1010 !
b1010 b
1G
1+
b1010 %
b1010 a
b1010 (
1"
#138000
0"
#138500
b1011 !
b1011 b
0+
b1011 %
b1011 a
b1011 (
1"
#139000
0"
#139500
1)
0T
1O
1F
1L
0P
b1100 !
b1100 b
1H
0G
1+
0[
b1100 %
b1100 a
b1100 (
1"
#140000
0"
#140500
b1101 !
b1101 b
0+
b1101 %
b1101 a
b1101 (
1"
#141000
0"
#141500
0F
0L
1P
b1110 !
b1110 b
1G
1+
b1110 %
b1110 a
b1110 (
1"
#142000
0"
#142500
b1111 !
b1111 b
0+
b1111 %
b1111 a
b1111 (
1"
#143000
0"
#143500
0Z
0)
1T
0W
05
0O
1F
1L
0P
0M
1*
b0 !
b0 b
0H
0G
0C
1+
1[
0@
b0 %
b0 a
b1001 $
b1001 `
b1001 '
b0 (
1"
#144000
0"
#144500
b1 !
b1 b
0+
b1 %
b1 a
b1 (
1"
#145000
0"
#145500
0F
0L
1P
b10 !
b10 b
1G
1+
b10 %
b10 a
b10 (
1"
#146000
0"
#146500
b11 !
b11 b
0+
b11 %
b11 a
b11 (
1"
#147000
0"
#147500
1)
0T
1O
1F
1L
0P
b100 !
b100 b
1H
0G
1+
0[
b100 %
b100 a
b100 (
1"
#148000
0"
#148500
b101 !
b101 b
0+
b101 %
b101 a
b101 (
1"
#149000
0"
#149500
0F
0L
1P
b110 !
b110 b
1G
1+
b110 %
b110 a
b110 (
1"
#150000
0"
#150500
b111 !
b111 b
0+
b111 %
b111 a
b111 (
1"
#151000
0"
#151500
1Z
0)
1T
1W
0O
1F
1L
0P
1M
b1000 !
b1000 b
0H
0G
1C
1+
1[
b1000 %
b1000 a
b1000 (
1"
#152000
0"
#152500
b1001 !
b1001 b
0+
b1001 %
b1001 a
b1001 (
1"
#153000
0"
#153500
0F
0L
1P
b1010 !
b1010 b
1G
1+
b1010 %
b1010 a
b1010 (
1"
#154000
0"
#154500
b1011 !
b1011 b
0+
b1011 %
b1011 a
b1011 (
1"
#155000
0"
#155500
1)
0T
1O
1F
1L
0P
b1100 !
b1100 b
1H
0G
1+
0[
b1100 %
b1100 a
b1100 (
1"
#156000
0"
#156500
b1101 !
b1101 b
0+
b1101 %
b1101 a
b1101 (
1"
#157000
0"
#157500
0F
0L
1P
b1110 !
b1110 b
1G
1+
b1110 %
b1110 a
b1110 (
1"
#158000
0"
#158500
b1111 !
b1111 b
0+
b1111 %
b1111 a
b1111 (
1"
#159000
0"
#159500
0Z
0)
1T
0W
15
0O
1F
1L
0P
0M
0*
b0 !
b0 b
0H
0G
0C
1+
1[
0U
1@
b0 %
b0 a
b1010 $
b1010 `
b1010 '
b0 (
1"
#160000
0"
#160500
b1 !
b1 b
0+
b1 %
b1 a
b1 (
1"
#161000
0"
#161500
0F
0L
1P
b10 !
b10 b
1G
1+
b10 %
b10 a
b10 (
1"
#162000
0"
#162500
b11 !
b11 b
0+
b11 %
b11 a
b11 (
1"
#163000
0"
#163500
1)
0T
1O
1F
1L
0P
b100 !
b100 b
1H
0G
1+
0[
b100 %
b100 a
b100 (
1"
#164000
0"
#164500
b101 !
b101 b
0+
b101 %
b101 a
b101 (
1"
#165000
0"
#165500
0F
0L
1P
b110 !
b110 b
1G
1+
b110 %
b110 a
b110 (
1"
#166000
0"
#166500
b111 !
b111 b
0+
b111 %
b111 a
b111 (
1"
#167000
0"
#167500
1Z
0)
1T
1W
0O
1F
1L
0P
1M
b1000 !
b1000 b
0H
0G
1C
1+
1[
b1000 %
b1000 a
b1000 (
1"
#168000
0"
#168500
b1001 !
b1001 b
0+
b1001 %
b1001 a
b1001 (
1"
#169000
0"
#169500
0F
0L
1P
b1010 !
b1010 b
1G
1+
b1010 %
b1010 a
b1010 (
1"
#170000
0"
#170500
b1011 !
b1011 b
0+
b1011 %
b1011 a
b1011 (
1"
#171000
0"
#171500
1)
0T
1O
1F
1L
0P
b1100 !
b1100 b
1H
0G
1+
0[
b1100 %
b1100 a
b1100 (
1"
#172000
0"
#172500
b1101 !
b1101 b
0+
b1101 %
b1101 a
b1101 (
1"
#173000
0"
#173500
0F
0L
1P
b1110 !
b1110 b
1G
1+
b1110 %
b1110 a
b1110 (
1"
#174000
0"
#174500
b1111 !
b1111 b
0+
b1111 %
b1111 a
b1111 (
1"
#175000
0"
#175500
0Z
0)
1T
0W
05
0O
1F
1L
0P
0M
1*
b0 !
b0 b
0H
0G
0C
1+
1[
0@
b0 %
b0 a
b1011 $
b1011 `
b1011 '
b0 (
1"
#176000
0"
#176500
b1 !
b1 b
0+
b1 %
b1 a
b1 (
1"
#177000
0"
#177500
0F
0L
1P
b10 !
b10 b
1G
1+
b10 %
b10 a
b10 (
1"
#178000
0"
#178500
b11 !
b11 b
0+
b11 %
b11 a
b11 (
1"
#179000
0"
#179500
1)
0T
1O
1F
1L
0P
b100 !
b100 b
1H
0G
1+
0[
b100 %
b100 a
b100 (
1"
#180000
0"
#180500
b101 !
b101 b
0+
b101 %
b101 a
b101 (
1"
#181000
0"
#181500
0F
0L
1P
b110 !
b110 b
1G
1+
b110 %
b110 a
b110 (
1"
#182000
0"
#182500
b111 !
b111 b
0+
b111 %
b111 a
b111 (
1"
#183000
0"
#183500
1Z
0)
1T
1W
0O
1F
1L
0P
1M
b1000 !
b1000 b
0H
0G
1C
1+
1[
b1000 %
b1000 a
b1000 (
1"
#184000
0"
#184500
b1001 !
b1001 b
0+
b1001 %
b1001 a
b1001 (
1"
#185000
0"
#185500
0F
0L
1P
b1010 !
b1010 b
1G
1+
b1010 %
b1010 a
b1010 (
1"
#186000
0"
#186500
b1011 !
b1011 b
0+
b1011 %
b1011 a
b1011 (
1"
#187000
0"
#187500
1)
0T
1O
1F
1L
0P
b1100 !
b1100 b
1H
0G
1+
0[
b1100 %
b1100 a
b1100 (
1"
#188000
0"
#188500
b1101 !
b1101 b
0+
b1101 %
b1101 a
b1101 (
1"
#189000
0"
#189500
0F
0L
1P
b1110 !
b1110 b
1G
1+
b1110 %
b1110 a
b1110 (
1"
#190000
0"
#190500
b1111 !
b1111 b
0+
b1111 %
b1111 a
b1111 (
1"
#191000
0"
#191500
0Z
0)
1T
0W
15
0O
1F
1L
0P
0M
0*
b0 !
b0 b
0H
0G
0C
1+
1[
0\
1U
1@
b0 %
b0 a
b1100 $
b1100 `
b1100 '
b0 (
1"
#192000
0"
#192500
b1 !
b1 b
0+
b1 %
b1 a
b1 (
1"
#193000
0"
#193500
0F
0L
1P
b10 !
b10 b
1G
1+
b10 %
b10 a
b10 (
1"
#194000
0"
#194500
b11 !
b11 b
0+
b11 %
b11 a
b11 (
1"
#195000
0"
#195500
1)
0T
1O
1F
1L
0P
b100 !
b100 b
1H
0G
1+
0[
b100 %
b100 a
b100 (
1"
#196000
0"
#196500
b101 !
b101 b
0+
b101 %
b101 a
b101 (
1"
#197000
0"
#197500
0F
0L
1P
b110 !
b110 b
1G
1+
b110 %
b110 a
b110 (
1"
#198000
0"
#198500
b111 !
b111 b
0+
b111 %
b111 a
b111 (
1"
#199000
0"
#199500
1Z
0)
1T
1W
0O
1F
1L
0P
1M
b1000 !
b1000 b
0H
0G
1C
1+
1[
b1000 %
b1000 a
b1000 (
1"
#200000
0"
#200500
b1001 !
b1001 b
0+
b1001 %
b1001 a
b1001 (
1"
#201000
0"
#201500
0F
0L
1P
b1010 !
b1010 b
1G
1+
b1010 %
b1010 a
b1010 (
1"
#202000
0"
#202500
b1011 !
b1011 b
0+
b1011 %
b1011 a
b1011 (
1"
#203000
0"
#203500
1)
0T
1O
1F
1L
0P
b1100 !
b1100 b
1H
0G
1+
0[
b1100 %
b1100 a
b1100 (
1"
#204000
0"
#204500
b1101 !
b1101 b
0+
b1101 %
b1101 a
b1101 (
1"
#205000
0"
#205500
0F
0L
1P
b1110 !
b1110 b
1G
1+
b1110 %
b1110 a
b1110 (
1"
#206000
0"
#206500
b1111 !
b1111 b
0+
b1111 %
b1111 a
b1111 (
1"
#207000
0"
#207500
0Z
0)
1T
0W
05
0O
1F
1L
0P
0M
1*
b0 !
b0 b
0H
0G
0C
1+
1[
0@
b0 %
b0 a
b1101 $
b1101 `
b1101 '
b0 (
1"
#208000
0"
#208500
b1 !
b1 b
0+
b1 %
b1 a
b1 (
1"
#209000
0"
#209500
0F
0L
1P
b10 !
b10 b
1G
1+
b10 %
b10 a
b10 (
1"
#210000
0"
#210500
b11 !
b11 b
0+
b11 %
b11 a
b11 (
1"
#211000
0"
#211500
1)
0T
1O
1F
1L
0P
b100 !
b100 b
1H
0G
1+
0[
b100 %
b100 a
b100 (
1"
#212000
0"
#212500
b101 !
b101 b
0+
b101 %
b101 a
b101 (
1"
#213000
0"
#213500
0F
0L
1P
b110 !
b110 b
1G
1+
b110 %
b110 a
b110 (
1"
#214000
0"
#214500
b111 !
b111 b
0+
b111 %
b111 a
b111 (
1"
#215000
0"
#215500
1Z
0)
1T
1W
0O
1F
1L
0P
1M
b1000 !
b1000 b
0H
0G
1C
1+
1[
b1000 %
b1000 a
b1000 (
1"
#216000
0"
#216500
b1001 !
b1001 b
0+
b1001 %
b1001 a
b1001 (
1"
#217000
0"
#217500
0F
0L
1P
b1010 !
b1010 b
1G
1+
b1010 %
b1010 a
b1010 (
1"
#218000
0"
